<?xml version="1.0" encoding="UTF-8" standalone="no"?>
<!-- Created with Inkscape (http://www.inkscape.org/) -->

<svg
   xmlns:dc="http://purl.org/dc/elements/1.1/"
   xmlns:cc="http://creativecommons.org/ns#"
   xmlns:rdf="http://www.w3.org/1999/02/22-rdf-syntax-ns#"
   xmlns:svg="http://www.w3.org/2000/svg"
   xmlns="http://www.w3.org/2000/svg"
   xmlns:sodipodi="http://sodipodi.sourceforge.net/DTD/sodipodi-0.dtd"
   xmlns:inkscape="http://www.inkscape.org/namespaces/inkscape"
   width="48"
   height="48"
   viewBox="0 0 12.7 12.7"
   version="1.1"
   id="svg2567"
   inkscape:version="0.92.2 5c3e80d, 2017-08-06"
   sodipodi:docname="logo2.svg">
  <defs
     id="defs2561" />
  <sodipodi:namedview
     id="base"
     pagecolor="#ffffff"
     bordercolor="#666666"
     borderopacity="1.0"
     inkscape:pageopacity="0.0"
     inkscape:pageshadow="2"
     inkscape:zoom="15.839192"
     inkscape:cx="5.3794405"
     inkscape:cy="12.221185"
     inkscape:document-units="mm"
     inkscape:current-layer="layer1"
     showgrid="false"
     units="px"
     inkscape:window-width="1920"
     inkscape:window-height="1017"
     inkscape:window-x="0"
     inkscape:window-y="34"
     inkscape:window-maximized="1" />
  <metadata
     id="metadata2564">
    <rdf:RDF>
      <cc:Work
         rdf:about="">
        <dc:format>image/svg+xml</dc:format>
        <dc:type
           rdf:resource="http://purl.org/dc/dcmitype/StillImage" />
        <dc:title></dc:title>
      </cc:Work>
    </rdf:RDF>
  </metadata>
  <g
     inkscape:label="Capa 1"
     inkscape:groupmode="layer"
     id="layer1"
     transform="translate(0,-284.3)">
    <path
       style="fill:none;stroke:#000000;stroke-width:0.06838866px;stroke-linecap:butt;stroke-linejoin:miter;stroke-opacity:1"
       d="m 12.027415,284.40254 c -9.4349716,8.81149 -9.364561,8.81149 -9.364561,8.81149"
       id="path3112"
       inkscape:connector-curvature="0" />
    <ellipse
       style="opacity:1;fill:#5555ff;fill-opacity:0;stroke:#000000;stroke-width:0.06849635;stroke-miterlimit:4;stroke-dasharray:none;stroke-opacity:1"
       id="path3114"
       cx="2.6628542"
       cy="293.21402"
       rx="1.3377947"
       ry="1.2878339" />
    <path
       style="opacity:1;fill:#5555ff;fill-opacity:0;stroke:#000000;stroke-width:0.06849635;stroke-miterlimit:4;stroke-dasharray:0.27398541, 0.54797081;stroke-dashoffset:0;stroke-opacity:1"
       id="path3118"
       sodipodi:type="arc"
       sodipodi:cx="12.027416"
       sodipodi:cy="284.40253"
       sodipodi:rx="12.990689"
       sodipodi:ry="12.505544"
       sodipodi:start="1.0376881"
       sodipodi:end="2.2591992"
       d="M 18.629449,295.1727 A 12.990689,12.505544 0 0 1 3.7743717,294.06008"
       sodipodi:open="true" />
    <path
       d="m 1.5601387,291.80897 a 12.990689,12.505544 0 0 1 -1.58967821,-2.75095"
       sodipodi:end="2.7601347"
       sodipodi:start="2.5077409"
       sodipodi:ry="12.505544"
       sodipodi:rx="12.990689"
       sodipodi:cy="284.40253"
       sodipodi:cx="12.027416"
       sodipodi:type="arc"
       id="path3129"
       style="opacity:1;fill:#5555ff;fill-opacity:0;stroke:#000000;stroke-width:0.06849635;stroke-miterlimit:4;stroke-dasharray:0.01712409, 0.01712409;stroke-dashoffset:0;stroke-opacity:1"
       sodipodi:open="true" />
    <path
       sodipodi:open="true"
       style="opacity:1;fill:#5555ff;fill-opacity:0;stroke:#000000;stroke-width:0.06849635;stroke-miterlimit:4;stroke-dasharray:0.01712409, 0.01712409;stroke-dashoffset:0;stroke-opacity:1"
       id="path3133"
       sodipodi:type="arc"
       sodipodi:cx="11.534544"
       sodipodi:cy="284.60587"
       sodipodi:rx="12.990689"
       sodipodi:ry="12.505544"
       sodipodi:start="2.5077409"
       sodipodi:end="2.7601347"
       d="m 1.0672665,292.01231 a 12.990689,12.505544 0 0 1 -1.58967825,-2.75096" />
  </g>
</svg>
